{
	"nomes" : "Phylogeography of the lacertid lizard,Psammodromus algirus, in Iberia and across the Strait of Gibraltar", 
	"accession_number" : ["DQ298688", "DQ298679", "DQ298680", "DQ298681", "DQ298682", "DQ298683", "DQ298684", "DQ298687", "DQ298685", "DQ298686", "DQ298678", "DQ298676", "DQ298677", "DQ298675", "DQ298674", "DQ298672", "DQ298673", "DQ298733", "DQ298734", "DQ298731", "DQ298732", "DQ298730", "DQ298666", "DQ298667", "DQ298668", "DQ298670", "DQ298669", "DQ298704", "DQ298705", "DQ298706", "DQ298707", "DQ298698", "DQ298700", "DQ298716", "DQ298710", "DQ298708", "DQ298709", "DQ298711", "DQ298699", "DQ298671", "DQ298701", "DQ298702", "DQ298703", "DQ298717", "DQ298715", "DQ298712", "DQ298713", "DQ298714", "DQ298665", "DQ298664", "DQ298663", "DQ298656", "DQ298658", "DQ298655", "DQ298657", "DQ298659", "DQ298662", "DQ298660", "DQ298661", "DQ298691", "DQ298692", "DQ298696", "DQ298695", "DQ298697", "DQ298690", "DQ298689", "DQ298693", "DQ298694", "DQ298718", "DQ298719", "DQ298727", "DQ298728", "DQ298726", "DQ298725", "DQ298724", "DQ298720", "DQ298722", "DQ298723", "DQ298721", "DQ298729 "],
	"autores" : "S.Carranza D.J.Harris, E.N. Arnold, V.Batista, J.P.Gonzalez de la Vega",
	"link" : " https://doi.org/10.1111/j.1365-2699.2006.01491.x",
	"outgroup" : "Gallotia stehlini, DQ298688",
	"gene" : "16S"
	
	
}

