{
	"nomes" : "The Mitochondrial Genomes ofAquilafasciataandButeo lagopus(Aves,Accipitriformes): Sequence, Structure andPhylogenetic Analyses", 
	"acession_number" : ["GU189446", "GU189448", "GU189449", "GU189450", "GU189451", "GU189452", "GU189454", "GU189456", "GU189457", "GU189458", "GU189453", "GU189459", "GU189463", "GU189460", "GU189461", "GU189462", "GU189444 "],
	"autores" : "Lan Jiang, Juan Chen, Ping Wang, Qiongqiong Ren, Jian Yuan, Chaoju Qian, Xinghong Hua, Zhichun Guo, Lei Zhang1, Jianke Yang6, Ying Wang, Qin Zhang, Hengwu Ding, DeBi, Zongmeng Zhang, Qingqing Wang, Dongsheng Chen, Xianzhao Kan", 
	"link" : " https://doi.org/10.1371/journal.pone.0136297",
	"outgroup": "Harpia harpyja, GU189444",
	"gene" : "MYC"
	
}

