{
	"nomes" : "Malpighiales phylogenetics: Gaining ground on one of the most recalcitrant clades in the angiosperm tree of life",
	"accession_number" : ["FJ669549", "EF135391", "EF135343", "EF135396", "FJ669550", "EF135389", "EF135399", "EF135328", "EF135367", "FJ669527", "FJ669528", "EF135358", "EF135365", "FJ669554", "FJ669555", "EF135395", "FJ669553", "FJ669536", "EF135382", "FJ669552", "EF135405", "EF135368", "EF135352", "EF135311", "EF135362", "FJ669491", "EF135326", "EF135345", "EF135359", "EF135363 "],
	"autores" : " Kenneth J.Wurdack, Charles C.Davis",
	"link" : " https://doi.org/10.3732/ajb.0800207",
	"outgroup" : "Klainedoxa gabonensis, EF135363",
	"gene" : "nad6" 
	
}

