{
	"nomes" : "Malpighiales phylogenetics: Gaining ground on one of the most recalcitrant clades in the angiosperm tree of life",
	"accession_number" : ["EF135498", "EF135588", "EF135529", "EF135541", "EF135592", "FJ670040", "EF135586", "EF135594", "EF135516", "EF135561", "FJ670025", "FJ670026", "EF135550", "EF135558", "EF135552", "AB038188", "FJ670044", "FJ670043", "EF135576", "EF135577", "FJ670042", "EF135599", "EF135562", "EF135544", "EF135500", "EF135555", "FJ669998", "EF135514", "EF135535", "EF135551", "EF135556 "],
	"autores" : " Kenneth J.Wurdack, Charles C.Davis",
	"link" : " https://doi.org/10.3732/ajb.0800207",
	"outgroup" : "Klainedoxa gabonensis, EF135556",
	"gene" : "matK"
	
}

